 <div style='left:20%;bottom:10.2%;width:100%'></div>
 <div style='left:4%;bottom:18.5%;width:20%'></div>
<div style='left:4%;bottom:23%;width:8%'></div>
<div style='left:15%;bottom:29%;width:50%'></div>
<div style='left:18%;bottom:35%;width:40%'></div>
<div style='left:21%;bottom:40%;width:30%'></div>
<div style='left:24%;bottom:45%;width:20%'></div>