<div style='left:250px;bottom:100px;width:700px'></div>
<div style='left:300px;bottom:150px;width:650px'></div>
<div style='left:350px;bottom:200px;width:605px'></div>
<div style='left:400px;bottom:250px;width:554px'></div>
<div style='left:450px;bottom:300px;width:500px'></div>
<div style='left:500px;bottom:350px;width:450px'></div>
<div style='left:550px;bottom:400px;width:400px'></div>
<div style='left:600px;bottom:450px;width:350px'></div>
<div style='left:650px;bottom:480px;width:300px'></div>